<?xml version="1.0" encoding="utf-8"?>
<!-- Generator: Adobe Illustrator 25.4.1, SVG Export Plug-In . SVG Version: 6.00 Build 0)  -->
<svg version="1.1" id="Layer_1" xmlns="http://www.w3.org/2000/svg" xmlns:xlink="http://www.w3.org/1999/xlink" x="0px" y="0px"
	 viewBox="0 0 100 100" style="enable-background:new 0 0 100 100;" xml:space="preserve">
<style type="text/css">
	.st0{fill:#FFFFFF;}
</style>
<g>
	<g>
		<path class="st0" d="M46,61.82c-0.26-0.07-0.94-0.27-1.51-0.44L39.8,78.63l-0.25,0.93l2.36,0.01l0.09-0.33l4.68-17.22
			C46.4,61.93,46.13,61.86,46,61.82z"/>
	</g>
	<path class="st0" d="M49.16,49.68l0.01,0c2.49,0.68,4.83,1.65,6.82,2.83l5.05-20.97l-13.03-3.56l-6.28,20.69
		C44.07,48.64,46.63,48.99,49.16,49.68L49.16,49.68z"/>
	<path class="st0" d="M56.69,21.92c-6.58-1.79-12.35-1.97-13.44-0.5c-0.07,0.08-0.12,0.17-0.15,0.28l-0.71,2.62
		c-0.11,0.39,0.12,0.8,0.51,0.91l24,6.53c0.4,0.1,0.8-0.13,0.9-0.52l0.71-2.62c0.03-0.11,0.03-0.21,0.02-0.31
		C68.34,26.48,63.27,23.71,56.69,21.92z"/>
	<path class="st0" d="M32.07,56.2L46.05,60l0.01,0.01l13.98,3.8c0.46,0.12,0.92-0.12,1.04-0.54c1.43-5.29-4.9-10.17-12.57-12.26
		c-0.01,0-0.01,0-0.01,0l-0.01,0c-7.67-2.09-15.6-1.08-17.04,4.2"/>
</g>
</svg>
