{"type":"FeatureCollection",
  "features":
  [
    {"type":"Feature",
      "geometry":
      {
        "type": "Point",
        "coordinates": [2.1390080451965,41.376457856578]
      },
      "properties":
        {
          "name": "Roba reciclada",
          "description": "És un grup de consum de roba reciclada",
          "sector": ["roba","alimentacio"]
        }
    },
    {"type":"Feature",
      "geometry":
      {
        "type": "Point",
        "coordinates": [2.1361756324768,41.403372025756]
      },
      "properties":
        {
          "name": "Herbolari Maria Casas",
          "description": "\u003Cp\u003E\u00c9s una botiga de venda al detall de productes d\u0026#039;herboristeria, alimentaci\u00f3 especial, natural i ecol\u00f2gica, cosm\u00e8tica natural i complements diet\u00e8tics. Des de 1987, ofereixen un projecte de d\u0026#039;apropament de formes tradicionals de cura associades al coneixement de primera l\u00ednia: des de la convicci\u00f3 que el que feien els nostres besavis i bes\u00e0vies tenia un sentit, han intentat explicar-ho amb la tecnologia",
          "sector":["alimentacio","roba"]
        }
    }

  ]
}
